Coding Simulations
…
formatted_results %>%
  dplyr::select(
    Wilcoxon, Fisher, `Chi Squared (No Correction)`,
    `Chi Squared (Correction)`, `Prop. Odds`,
    `Coin Indep. Test`,
    sample_size
  ) %>%
  calculate_t1_error(alpha = 0.05, t1_error_confidence_int = 95)
#> # A tibble: 36 × 6
#> # Groups:   Sample Size [6]
#>    `Sample Size` test            lower_t1_bound upper_t1_bound t1_error `95% CI`
#>            <int> <chr>                    <dbl>          <dbl>    <dbl> <chr>   
#>  1            30 Wilcoxon                 0.452          0.736     0.6  [0.452,…
#>  2            30 Fisher                   0.374          0.663     0.52 [0.374,…
#>  3            30 Chi Squared (N…          0.374          0.663     0.52 [0.374,…
#>  4            30 Chi Squared (C…          0.374          0.663     0.52 [0.374,…
#>  5            30 Prop. Odds               0.472          0.753     0.62 [0.472,…
#>  6            30 Coin Indep. Te…          0.472          0.753     0.62 [0.472,…
#>  7            31 Wilcoxon                 0.512          0.788     0.66 [0.512,…
#>  8            31 Fisher                   0.318          0.607     0.46 [0.318,…
#>  9            31 Chi Squared (N…          0.374          0.663     0.52 [0.374,…
#> 10            31 Chi Squared (C…          0.374          0.663     0.52 [0.374,…
#> # ℹ 26 more rows
…
# Use tidyr::expand_grid as it creates a tibble, supporting the nested tibble structure
info_table <- tidyr::expand_grid(
  sample_size,
  sample_prob,
  prob0_list,
  prob1_list,
  niter
)

info_table
#> # A tibble: 32 × 5
#>    sample_size sample_prob prob0_list   prob1_list   niter
#>          <dbl> <list>      <named list> <named list> <dbl>
#>  1          50 <dbl [2]>   <dbl [4]>    <dbl [4]>       20
#>  2          50 <dbl [2]>   <dbl [4]>    <dbl [4]>      100
#>  3          50 <dbl [2]>   <dbl [4]>    <dbl [4]>       20
#>  4          50 <dbl [2]>   <dbl [4]>    <dbl [4]>      100
#>  5          50 <dbl [2]>   <dbl [4]>    <dbl [4]>       20
#>  6          50 <dbl [2]>   <dbl [4]>    <dbl [4]>      100
#>  7          50 <dbl [2]>   <dbl [4]>    <dbl [4]>       20
#>  8          50 <dbl [2]>   <dbl [4]>    <dbl [4]>      100
#>  9          50 <dbl [2]>   <dbl [4]>    <dbl [4]>       20
#> 10          50 <dbl [2]>   <dbl [4]>    <dbl [4]>      100
#> # ℹ 22 more rows
…
